Instruction: r 345
Read value: null
Instruction: w 342 imbharat
Instruction: r 342
Read value: imbharat
Instruction: w 1 bharat
Instruction: w 2 arvind
Instruction: w 3 srikant
Instruction: w 4 ayush
Instruction: r 2
Read value: arvind
Instruction: r 1
Read value: bharat
Instruction: w 1 srikant
Instruction: r 3
Read value: srikant
Instruction: w 2 bharat
Instruction: r 2
Read value: bharat
Instruction: r 4
Read value: ayush
Instruction: r 345
Read value: null
Instruction: w 342 imbharat
Instruction: r 342
Read value: imbharat
Instruction: w 1 bharat
Instruction: w 2 arvind
Instruction: w 3 srikant
Instruction: w 4 ayush
Instruction: r 2
Read value: arvind
Instruction: r 1
Read value: bharat
Instruction: w 1 srikant
Instruction: r 3
Read value: srikant
Instruction: w 2 bharat
Instruction: r 2
Read value: bharat
Instruction: r 4
Read value: ayush
